…
<!-- end list -->

``` r
if(!require(tidyverse)){install.packages('tidyverse'); require(tidyverse)} # Manipulação de dados
if(!require(VGAM)){install.packages('VGAM'); require(VGAM)} # Pacote com a função ara criar o modelo
```

## Modelo

``` r
dados <- readxl::read_xlsx('RegressãoMultinomial.xlsx')
dados
```

    ## # A tibble: 167 x 4
    ##     Voto Etnia Escala_conf Lib_econ
    ##    <dbl> <dbl>       <dbl>    <dbl>
    ##  1     2     1           3        3
    ##  2     1     1           2        7
    ##  3     0     1           7        1
    ##  4     0     1           9        5
    ##  5     1     1           2        6
    ##  6     0     1           6        3
    ##  7     0     1           6        3
    ##  8     1     0           6       10
    ##  9     0     1           6        4
    ## 10     2     1           7        8
    ## # ... with 157 more rows
…
